<svg width="6" height="10" viewBox="0 0 6 10" fill="none" xmlns="http://www.w3.org/2000/svg">
<path d="M5.49995 4.42857L1.42852 0.428575C1.14281 0.142861 0.714234 0.142861 0.42852 0.428575C0.142806 0.714289 0.142806 1.14286 0.42852 1.42858L3.92852 5L0.428521 8.57143C0.142807 8.85715 0.142807 9.28572 0.428521 9.57143C0.571378 9.71429 0.714236 9.78572 0.928522 9.78572C1.14281 9.78572 1.28566 9.71429 1.42852 9.57143L5.49995 5.57143C5.78566 5.21429 5.78566 4.78572 5.49995 4.42857C5.49995 4.5 5.49995 4.5 5.49995 4.42857Z" fill="#828282"/>
</svg>
